\relax 
\newlabel{eq-problem}{{7}{2}}
\@writefile{lof}{\contentsline {figure}{\numberline {1}{\ignorespaces Error function calculated with differential equation 7\hbox {}.}}{2}}
\newlabel{fig-erf}{{1}{2}}
