\relax 
\@writefile{toc}{\contentsline {section}{\numberline {1}Problem}{1}}
\@writefile{toc}{\contentsline {section}{\numberline {2}Answer to question number 5 from lecture 3}{1}}
\@writefile{toc}{\contentsline {section}{\numberline {3}Implementation and solution}{1}}
\@writefile{lof}{\contentsline {figure}{\numberline {1}{\ignorespaces Highest eigenvalue as a function of n.}}{2}}
\newlabel{fig:plot}{{1}{2}}
