iter =   1 x = 1.997506 y= 3.990025 f'x =  1.99998 f'y = -0.00124379
iter =   2 x = 1.997506 y= 3.990025 f'x =  1.99998 f'y = -0.00124379
iter =   3 x = 1.997506 y= 3.990025 f'x =  1.99998 f'y = -0.00124379
iter =   4 x = 1.997506 y= 3.990025 f'x =  1.99998 f'y = -0.00124379
iter =   5 x = 1.997506 y= 3.990025 f'x =  1.99998 f'y = -0.00124379
iter =   6 x = 1.997506 y= 3.990025 f'x =  1.99998 f'y = -0.00124379
iter =   7 x = 1.977802 y= 3.912825 f'x =   1.0659 f'y = 0.224923
iter =   8 x = 1.977802 y= 3.912825 f'x =   1.0659 f'y = 0.224923
iter =   9 x = 1.957984 y= 3.836336 f'x = -0.146353 f'y = 0.526644
iter =  10 x = 1.957984 y= 3.836336 f'x = -0.146353 f'y = 0.526644
iter =  11 x = 1.938240 y= 3.759385 f'x = -0.146851 f'y = 0.521951
iter =  12 x = 1.928382 y= 3.720819 f'x = 0.190051 f'y = 0.432153
iter =  13 x = 1.928382 y= 3.720819 f'x = 0.190051 f'y = 0.432153
iter =  14 x = 1.918444 y= 3.682763 f'x = 0.0448889 f'y = 0.467045
iter =  15 x = 1.918444 y= 3.682763 f'x = 0.0448889 f'y = 0.467045
iter =  16 x = 1.913484 y= 3.663679 f'x = 0.0974877 f'y = 0.451919
iter =  17 x = 1.913484 y= 3.663679 f'x = 0.0974877 f'y = 0.451919
iter =  18 x = 1.908512 y= 3.644670 f'x = 0.0973228 f'y = 0.450534
iter =  19 x = 1.908512 y= 3.644670 f'x = 0.0973228 f'y = 0.450534
iter =  20 x = 1.903535 y= 3.625691 f'x = 0.0971275 f'y = 0.449149
iter =  21 x = 1.903535 y= 3.625691 f'x = 0.0971275 f'y = 0.449149
iter =  22 x = 1.898553 y= 3.606743 f'x = 0.0969466 f'y = 0.447751
iter =  23 x = 1.898553 y= 3.606743 f'x = 0.0969466 f'y = 0.447751
iter =  24 x = 1.893567 y= 3.587827 f'x = 0.0967639 f'y = 0.446345
iter =  25 x = 1.893567 y= 3.587827 f'x = 0.0967639 f'y = 0.446345
iter =  26 x = 1.888575 y= 3.568942 f'x = 0.0965793 f'y = 0.444931
iter =  27 x = 1.888575 y= 3.568942 f'x = 0.0965793 f'y = 0.444931
iter =  28 x = 1.883579 y= 3.550088 f'x = 0.0963927 f'y = 0.443508
iter =  29 x = 1.883579 y= 3.550088 f'x = 0.0963927 f'y = 0.443508
iter =  30 x = 1.878578 y= 3.531266 f'x = 0.0962041 f'y = 0.442077
iter =  31 x = 1.878578 y= 3.531266 f'x = 0.0962041 f'y = 0.442077
iter =  32 x = 1.873572 y= 3.512476 f'x = 0.0960136 f'y = 0.440637
iter =  33 x = 1.873572 y= 3.512476 f'x = 0.0960136 f'y = 0.440637
iter =  34 x = 1.868561 y= 3.493717 f'x = 0.0958211 f'y = 0.439189
iter =  35 x = 1.868561 y= 3.493717 f'x = 0.0958211 f'y = 0.439189
iter =  36 x = 1.863546 y= 3.474991 f'x = 0.0956265 f'y = 0.437731
iter =  37 x = 1.863546 y= 3.474991 f'x = 0.0956265 f'y = 0.437731
iter =  38 x = 1.858525 y= 3.456297 f'x = 0.0954299 f'y = 0.436265
iter =  39 x = 1.858525 y= 3.456297 f'x = 0.0954299 f'y = 0.436265
iter =  40 x = 1.853500 y= 3.437635 f'x = 0.0952313 f'y =  0.43479
iter =  41 x = 1.853500 y= 3.437635 f'x = 0.0952313 f'y =  0.43479
iter =  42 x = 1.848469 y= 3.419005 f'x = 0.0950306 f'y = 0.433307
iter =  43 x = 1.848469 y= 3.419005 f'x = 0.0950306 f'y = 0.433307
iter =  44 x = 1.843434 y= 3.400408 f'x = 0.0948278 f'y = 0.431814
iter =  45 x = 1.843434 y= 3.400408 f'x = 0.0948278 f'y = 0.431814
iter =  46 x = 1.838394 y= 3.381843 f'x = 0.0946229 f'y = 0.430312
iter =  47 x = 1.838394 y= 3.381843 f'x = 0.0946229 f'y = 0.430312
iter =  48 x = 1.833349 y= 3.363311 f'x = 0.0944158 f'y =   0.4288
iter =  49 x = 1.833349 y= 3.363311 f'x = 0.0944158 f'y =   0.4288
iter =  50 x = 1.828299 y= 3.344812 f'x = 0.0942067 f'y =  0.42728
iter =  51 x = 1.828299 y= 3.344812 f'x = 0.0942067 f'y =  0.42728
iter =  52 x = 1.823244 y= 3.326346 f'x = 0.0939953 f'y =  0.42575
iter =  53 x = 1.823244 y= 3.326346 f'x = 0.0939953 f'y =  0.42575
iter =  54 x = 1.818184 y= 3.307913 f'x = 0.0937818 f'y = 0.424211
iter =  55 x = 1.818184 y= 3.307913 f'x = 0.0937818 f'y = 0.424211
iter =  56 x = 1.813119 y= 3.289513 f'x = 0.0935661 f'y = 0.422662
iter =  57 x = 1.813119 y= 3.289513 f'x = 0.0935661 f'y = 0.422662
iter =  58 x = 1.808049 y= 3.271147 f'x = 0.0933482 f'y = 0.421103
iter =  59 x = 1.808049 y= 3.271147 f'x = 0.0933482 f'y = 0.421103
iter =  60 x = 1.802974 y= 3.252814 f'x = 0.093128 f'y = 0.419535
iter =  61 x = 1.802974 y= 3.252814 f'x = 0.093128 f'y = 0.419535
iter =  62 x = 1.797895 y= 3.234515 f'x = 0.0929055 f'y = 0.417957
iter =  63 x = 1.797895 y= 3.234515 f'x = 0.0929055 f'y = 0.417957
iter =  64 x = 1.792810 y= 3.216250 f'x = 0.0926808 f'y = 0.416369
iter =  65 x = 1.792810 y= 3.216250 f'x = 0.0926808 f'y = 0.416369
iter =  66 x = 1.787720 y= 3.198018 f'x = 0.0924537 f'y =  0.41477
iter =  67 x = 1.787720 y= 3.198018 f'x = 0.0924537 f'y =  0.41477
iter =  68 x = 1.782626 y= 3.179821 f'x = 0.0922244 f'y = 0.413162
iter =  69 x = 1.782626 y= 3.179821 f'x = 0.0922244 f'y = 0.413162
iter =  70 x = 1.777526 y= 3.161658 f'x = 0.0919927 f'y = 0.411544
iter =  71 x = 1.772428 y= 3.143484 f'x = 0.140204 f'y = 0.396251
iter =  72 x = 1.772428 y= 3.143484 f'x = 0.140204 f'y = 0.396251
iter =  73 x = 1.767313 y= 3.125431 f'x = 0.0950771 f'y =  0.40727
iter =  74 x = 1.762204 y= 3.107334 f'x = 0.134804 f'y =  0.39428
iter =  75 x = 1.762204 y= 3.107334 f'x = 0.134804 f'y =  0.39428
iter =  76 x = 1.757079 y= 3.089346 f'x = 0.0944262 f'y = 0.404003
iter =  77 x = 1.751960 y= 3.071318 f'x = 0.134114 f'y = 0.390935
iter =  78 x = 1.751960 y= 3.071318 f'x = 0.134114 f'y = 0.390935
iter =  79 x = 1.746825 y= 3.053400 f'x = 0.0941601 f'y = 0.400581
iter =  80 x = 1.741696 y= 3.035442 f'x = 0.133001 f'y = 0.387665
iter =  81 x = 1.741696 y= 3.035442 f'x = 0.133001 f'y = 0.387665
iter =  82 x = 1.736551 y= 3.017595 f'x = 0.0938431 f'y = 0.397126
iter =  83 x = 1.731412 y= 2.999708 f'x = 0.131932 f'y = 0.384337
iter =  84 x = 1.731412 y= 2.999708 f'x = 0.131932 f'y = 0.384337
iter =  85 x = 1.726257 y= 2.981931 f'x = 0.0935184 f'y = 0.393625
iter =  86 x = 1.721107 y= 2.964115 f'x = 0.130861 f'y = 0.380962
iter =  87 x = 1.721107 y= 2.964115 f'x = 0.130861 f'y = 0.380962
iter =  88 x = 1.715943 y= 2.946409 f'x = 0.0931812 f'y = 0.390078
iter =  89 x = 1.710783 y= 2.928666 f'x = 0.129793 f'y = 0.377539
iter =  90 x = 1.710783 y= 2.928666 f'x = 0.129793 f'y = 0.377539
iter =  91 x = 1.705608 y= 2.911032 f'x = 0.0928318 f'y = 0.386485
iter =  92 x = 1.700439 y= 2.893361 f'x = 0.128726 f'y = 0.374065
iter =  93 x = 1.700439 y= 2.893361 f'x = 0.128726 f'y = 0.374065
iter =  94 x = 1.695254 y= 2.875799 f'x = 0.0924698 f'y = 0.382845
iter =  95 x = 1.690074 y= 2.858202 f'x = 0.127661 f'y = 0.370542
iter =  96 x = 1.690074 y= 2.858202 f'x = 0.127661 f'y = 0.370542
iter =  97 x = 1.684879 y= 2.840713 f'x = 0.0920951 f'y = 0.379156
iter =  98 x = 1.679689 y= 2.823189 f'x = 0.126595 f'y = 0.366968
iter =  99 x = 1.679689 y= 2.823189 f'x = 0.126595 f'y = 0.366968
iter = 100 x = 1.674484 y= 2.805773 f'x = 0.0917072 f'y = 0.375417
iter = 101 x = 1.669284 y= 2.788324 f'x =  0.12553 f'y = 0.363341
iter = 102 x = 1.669284 y= 2.788324 f'x =  0.12553 f'y = 0.363341
iter = 103 x = 1.664069 y= 2.770982 f'x = 0.0913059 f'y = 0.371629
iter = 104 x = 1.658858 y= 2.753608 f'x = 0.124463 f'y = 0.359661
iter = 105 x = 1.658858 y= 2.753608 f'x = 0.124463 f'y = 0.359661
iter = 106 x = 1.653633 y= 2.736341 f'x = 0.0908909 f'y = 0.367789
iter = 107 x = 1.648412 y= 2.719042 f'x = 0.123396 f'y = 0.355927
iter = 108 x = 1.648412 y= 2.719042 f'x = 0.123396 f'y = 0.355927
iter = 109 x = 1.643177 y= 2.701850 f'x = 0.090462 f'y = 0.363896
iter = 110 x = 1.637946 y= 2.684627 f'x = 0.122326 f'y = 0.352138
iter = 111 x = 1.637946 y= 2.684627 f'x = 0.122326 f'y = 0.352138
iter = 112 x = 1.632701 y= 2.667511 f'x = 0.0900188 f'y =  0.35995
iter = 113 x = 1.627459 y= 2.650365 f'x = 0.121255 f'y = 0.348293
iter = 114 x = 1.627459 y= 2.650365 f'x = 0.121255 f'y = 0.348293
iter = 115 x = 1.622204 y= 2.633325 f'x = 0.0895611 f'y =  0.35595
iter = 116 x = 1.616952 y= 2.616256 f'x =  0.12018 f'y =  0.34439
iter = 117 x = 1.616952 y= 2.616256 f'x =  0.12018 f'y =  0.34439
iter = 118 x = 1.611687 y= 2.599293 f'x = 0.0890885 f'y = 0.351894
iter = 119 x = 1.606425 y= 2.582302 f'x = 0.119102 f'y = 0.340429
iter = 120 x = 1.606425 y= 2.582302 f'x = 0.119102 f'y = 0.340429
iter = 121 x = 1.601149 y= 2.565416 f'x = 0.0886007 f'y = 0.347781
iter = 122 x = 1.595877 y= 2.548504 f'x =  0.11802 f'y = 0.336409
iter = 123 x = 1.595877 y= 2.548504 f'x =  0.11802 f'y = 0.336409
iter = 124 x = 1.590591 y= 2.531697 f'x = 0.0880974 f'y = 0.343609
iter = 125 x = 1.585308 y= 2.514863 f'x = 0.116933 f'y = 0.332328
iter = 126 x = 1.585308 y= 2.514863 f'x = 0.116933 f'y = 0.332328
iter = 127 x = 1.580012 y= 2.498135 f'x = 0.0875782 f'y = 0.339379
iter = 128 x = 1.574719 y= 2.481381 f'x =  0.11584 f'y = 0.328185
iter = 129 x = 1.574719 y= 2.481381 f'x =  0.11584 f'y = 0.328185
iter = 130 x = 1.569413 y= 2.464732 f'x = 0.0870428 f'y = 0.335088
iter = 131 x = 1.564109 y= 2.448058 f'x = 0.114743 f'y = 0.323979
iter = 132 x = 1.564109 y= 2.448058 f'x = 0.114743 f'y = 0.323979
iter = 133 x = 1.558793 y= 2.431489 f'x = 0.0864911 f'y = 0.330735
iter = 134 x = 1.553479 y= 2.414897 f'x = 0.113639 f'y = 0.319708
iter = 135 x = 1.553479 y= 2.414897 f'x = 0.113639 f'y = 0.319708
iter = 136 x = 1.548153 y= 2.398408 f'x = 0.0859224 f'y = 0.326319
iter = 137 x = 1.542829 y= 2.381897 f'x = 0.112528 f'y = 0.315372
iter = 138 x = 1.542829 y= 2.381897 f'x = 0.112528 f'y = 0.315372
iter = 139 x = 1.537492 y= 2.365490 f'x = 0.0853365 f'y = 0.321838
iter = 140 x = 1.532157 y= 2.349061 f'x =  0.11141 f'y = 0.310968
iter = 141 x = 1.532157 y= 2.349061 f'x =  0.11141 f'y = 0.310968
iter = 142 x = 1.526810 y= 2.332735 f'x = 0.084733 f'y = 0.317291
iter = 143 x = 1.521465 y= 2.316389 f'x = 0.110284 f'y = 0.306496
iter = 144 x = 1.521465 y= 2.316389 f'x = 0.110284 f'y = 0.306496
iter = 145 x = 1.516108 y= 2.300146 f'x = 0.0841116 f'y = 0.312677
iter = 146 x = 1.510753 y= 2.283884 f'x = 0.109149 f'y = 0.301954
iter = 147 x = 1.510753 y= 2.283884 f'x = 0.109149 f'y = 0.301954
iter = 148 x = 1.505385 y= 2.267724 f'x = 0.0834718 f'y = 0.307994
iter = 149 x = 1.500020 y= 2.251546 f'x = 0.108005 f'y = 0.297341
iter = 150 x = 1.500020 y= 2.251546 f'x = 0.108005 f'y = 0.297341
iter = 151 x = 1.494642 y= 2.235470 f'x = 0.0828132 f'y =  0.30324
iter = 152 x = 1.489266 y= 2.219376 f'x = 0.106851 f'y = 0.292655
iter = 153 x = 1.489266 y= 2.219376 f'x = 0.106851 f'y = 0.292655
iter = 154 x = 1.483877 y= 2.203384 f'x = 0.0821355 f'y = 0.298414
iter = 155 x = 1.478491 y= 2.187376 f'x = 0.105686 f'y = 0.287893
iter = 156 x = 1.478491 y= 2.187376 f'x = 0.105686 f'y = 0.287893
iter = 157 x = 1.473093 y= 2.171470 f'x = 0.0814381 f'y = 0.293514
iter = 158 x = 1.467696 y= 2.155547 f'x = 0.104511 f'y = 0.283056
iter = 159 x = 1.467696 y= 2.155547 f'x = 0.104511 f'y = 0.283056
iter = 160 x = 1.462287 y= 2.139726 f'x = 0.0807208 f'y = 0.288539
iter = 161 x = 1.456880 y= 2.123891 f'x = 0.103324 f'y = 0.278141
iter = 162 x = 1.456880 y= 2.123891 f'x = 0.103324 f'y = 0.278141
iter = 163 x = 1.451461 y= 2.108156 f'x = 0.0799829 f'y = 0.283486
iter = 164 x = 1.446044 y= 2.092408 f'x = 0.102125 f'y = 0.273146
iter = 165 x = 1.446044 y= 2.092408 f'x = 0.102125 f'y = 0.273146
iter = 166 x = 1.440614 y= 2.076761 f'x = 0.0792241 f'y = 0.278355
iter = 167 x = 1.435186 y= 2.061100 f'x = 0.100912 f'y =  0.26807
iter = 168 x = 1.435186 y= 2.061100 f'x = 0.100912 f'y =  0.26807
iter = 169 x = 1.429747 y= 2.045541 f'x = 0.0784439 f'y = 0.273143
iter = 170 x = 1.424308 y= 2.029969 f'x = 0.0996861 f'y =  0.26291
iter = 171 x = 1.424308 y= 2.029969 f'x = 0.0996861 f'y =  0.26291
iter = 172 x = 1.418858 y= 2.014498 f'x = 0.0776418 f'y = 0.267847
iter = 173 x = 1.413410 y= 1.999016 f'x = 0.0984458 f'y = 0.257665
iter = 174 x = 1.413410 y= 1.999016 f'x = 0.0984458 f'y = 0.257665
iter = 175 x = 1.407949 y= 1.983634 f'x = 0.0768172 f'y = 0.262467
iter = 176 x = 1.402490 y= 1.968241 f'x = 0.0971906 f'y = 0.252333
iter = 177 x = 1.402490 y= 1.968241 f'x = 0.0971906 f'y = 0.252333
iter = 178 x = 1.397020 y= 1.952950 f'x = 0.0759697 f'y = 0.257001
iter = 179 x = 1.391550 y= 1.937647 f'x = 0.0959196 f'y = 0.246912
iter = 180 x = 1.391550 y= 1.937647 f'x = 0.0959196 f'y = 0.246912
iter = 181 x = 1.386070 y= 1.922446 f'x = 0.0750987 f'y = 0.251445
iter = 182 x = 1.380590 y= 1.907235 f'x = 0.0946323 f'y = 0.241399
iter = 183 x = 1.380590 y= 1.907235 f'x = 0.0946323 f'y = 0.241399
iter = 184 x = 1.375099 y= 1.892125 f'x = 0.0742036 f'y = 0.245798
iter = 185 x = 1.369608 y= 1.877006 f'x = 0.0933279 f'y = 0.235793
iter = 186 x = 1.369608 y= 1.877006 f'x = 0.0933279 f'y = 0.235793
iter = 187 x = 1.364107 y= 1.861988 f'x = 0.0732839 f'y = 0.240058
iter = 188 x = 1.358606 y= 1.846962 f'x = 0.0920056 f'y = 0.230091
iter = 189 x = 1.358606 y= 1.846962 f'x = 0.0920056 f'y = 0.230091
iter = 190 x = 1.353095 y= 1.832036 f'x = 0.072339 f'y = 0.234222
iter = 191 x = 1.347584 y= 1.817104 f'x = 0.0906647 f'y = 0.224291
iter = 192 x = 1.347584 y= 1.817104 f'x = 0.0906647 f'y = 0.224291
iter = 193 x = 1.342062 y= 1.802271 f'x = 0.0713682 f'y = 0.228289
iter = 194 x = 1.336541 y= 1.787432 f'x = 0.0893045 f'y = 0.218391
iter = 195 x = 1.336541 y= 1.787432 f'x = 0.0893045 f'y = 0.218391
iter = 196 x = 1.331008 y= 1.772694 f'x = 0.070371 f'y = 0.222255
iter = 197 x = 1.325477 y= 1.757950 f'x = 0.0879241 f'y = 0.212387
iter = 198 x = 1.325477 y= 1.757950 f'x = 0.0879241 f'y = 0.212387
iter = 199 x = 1.319934 y= 1.743307 f'x = 0.0693466 f'y = 0.216117
iter = 200 x = 1.314392 y= 1.728658 f'x = 0.0865227 f'y = 0.206278
iter = 201 x = 1.314392 y= 1.728658 f'x = 0.0865227 f'y = 0.206278
iter = 202 x = 1.308839 y= 1.714110 f'x = 0.0682943 f'y = 0.209875
iter = 203 x = 1.303287 y= 1.699557 f'x = 0.0850995 f'y = 0.200061
iter = 204 x = 1.303287 y= 1.699557 f'x = 0.0850995 f'y = 0.200061
iter = 205 x = 1.297724 y= 1.685105 f'x = 0.0672135 f'y = 0.203523
iter = 206 x = 1.292161 y= 1.670650 f'x = 0.0836537 f'y = 0.193733
iter = 207 x = 1.292161 y= 1.670650 f'x = 0.0836537 f'y = 0.193733
iter = 208 x = 1.286588 y= 1.656294 f'x = 0.0661035 f'y = 0.197061
iter = 209 x = 1.281015 y= 1.641936 f'x = 0.0821843 f'y = 0.187291
iter = 210 x = 1.281015 y= 1.641936 f'x = 0.0821843 f'y = 0.187291
iter = 211 x = 1.275432 y= 1.627679 f'x = 0.0649634 f'y = 0.190485
iter = 212 x = 1.269849 y= 1.613419 f'x = 0.0806905 f'y = 0.180733
iter = 213 x = 1.269849 y= 1.613419 f'x = 0.0806905 f'y = 0.180733
iter = 214 x = 1.264255 y= 1.599259 f'x = 0.0637925 f'y = 0.183791
iter = 215 x = 1.258661 y= 1.585099 f'x = 0.0791713 f'y = 0.174055
iter = 216 x = 1.258661 y= 1.585099 f'x = 0.0791713 f'y = 0.174055
iter = 217 x = 1.253058 y= 1.571038 f'x = 0.0625899 f'y = 0.176977
iter = 218 x = 1.247454 y= 1.556977 f'x = 0.0776258 f'y = 0.167253
iter = 219 x = 1.247454 y= 1.556977 f'x = 0.0776258 f'y = 0.167253
iter = 220 x = 1.241840 y= 1.543016 f'x = 0.0613549 f'y =  0.17004
iter = 221 x = 1.236226 y= 1.529056 f'x = 0.0760531 f'y = 0.160326
iter = 222 x = 1.236226 y= 1.529056 f'x = 0.0760531 f'y = 0.160326
iter = 223 x = 1.230602 y= 1.515195 f'x = 0.0600865 f'y = 0.162976
iter = 224 x = 1.224977 y= 1.501336 f'x = 0.0744521 f'y = 0.153269
iter = 225 x = 1.224977 y= 1.501336 f'x = 0.0744521 f'y = 0.153269
iter = 226 x = 1.219343 y= 1.487577 f'x = 0.0587838 f'y = 0.155782
iter = 227 x = 1.213709 y= 1.473819 f'x = 0.0728217 f'y = 0.146079
iter = 228 x = 1.213709 y= 1.473819 f'x = 0.0728217 f'y = 0.146079
iter = 229 x = 1.208064 y= 1.460162 f'x = 0.057446 f'y = 0.148453
iter = 230 x = 1.202420 y= 1.446507 f'x = 0.071161 f'y = 0.138753
iter = 231 x = 1.202420 y= 1.446507 f'x = 0.071161 f'y = 0.138753
iter = 232 x = 1.196765 y= 1.432952 f'x = 0.0560719 f'y = 0.140988
iter = 233 x = 1.191110 y= 1.419401 f'x = 0.0694687 f'y = 0.131286
iter = 234 x = 1.191110 y= 1.419401 f'x = 0.0694687 f'y = 0.131286
iter = 235 x = 1.185446 y= 1.405949 f'x = 0.0546607 f'y = 0.133381
iter = 236 x = 1.179781 y= 1.392502 f'x = 0.0677439 f'y = 0.123675
iter = 237 x = 1.179781 y= 1.392502 f'x = 0.0677439 f'y = 0.123675
iter = 238 x = 1.174106 y= 1.379154 f'x = 0.0532112 f'y = 0.125628
iter = 239 x = 1.168431 y= 1.365812 f'x = 0.0659852 f'y = 0.115915
iter = 240 x = 1.168431 y= 1.365812 f'x = 0.0659852 f'y = 0.115915
iter = 241 x = 1.162747 y= 1.352569 f'x = 0.0517223 f'y = 0.117726
iter = 242 x = 1.157062 y= 1.339332 f'x = 0.0641916 f'y = 0.108003
iter = 243 x = 1.157062 y= 1.339332 f'x = 0.0641916 f'y = 0.108003
iter = 244 x = 1.151367 y= 1.326195 f'x = 0.050193 f'y =  0.10967
iter = 245 x = 1.145672 y= 1.313064 f'x = 0.0623616 f'y = 0.0999336
iter = 246 x = 1.145672 y= 1.313064 f'x = 0.0623616 f'y = 0.0999336
iter = 247 x = 1.139967 y= 1.300033 f'x = 0.048622 f'y = 0.101456
iter = 248 x = 1.134262 y= 1.287009 f'x = 0.0604941 f'y = 0.0917029
iter = 249 x = 1.134262 y= 1.287009 f'x = 0.0604941 f'y = 0.0917029
iter = 250 x = 1.128548 y= 1.274086 f'x = 0.0470082 f'y = 0.0930787
iter = 251 x = 1.122833 y= 1.261170 f'x = 0.0585877 f'y = 0.083306
iter = 252 x = 1.122833 y= 1.261170 f'x = 0.0585877 f'y = 0.083306
iter = 253 x = 1.117108 y= 1.248354 f'x = 0.0453501 f'y = 0.0845336
iter = 254 x = 1.111383 y= 1.235546 f'x = 0.056641 f'y = 0.074738
iter = 255 x = 1.111383 y= 1.235546 f'x = 0.056641 f'y = 0.074738
iter = 256 x = 1.105649 y= 1.222839 f'x = 0.0436466 f'y = 0.0758157
iter = 257 x = 1.099914 y= 1.210140 f'x = 0.0546526 f'y = 0.0659938
iter = 258 x = 1.099914 y= 1.210140 f'x = 0.0546526 f'y = 0.0659938
iter = 259 x = 1.094170 y= 1.197542 f'x = 0.0418962 f'y = 0.0669198
iter = 260 x = 1.088425 y= 1.184954 f'x = 0.052621 f'y = 0.0570681
iter = 261 x = 1.088425 y= 1.184954 f'x = 0.052621 f'y = 0.0570681
iter = 262 x = 1.082671 y= 1.172465 f'x = 0.0400976 f'y = 0.0578404
iter = 263 x = 1.076916 y= 1.159988 f'x = 0.0505445 f'y = 0.0479553
iter = 264 x = 1.076916 y= 1.159988 f'x = 0.0505445 f'y = 0.0479553
iter = 265 x = 1.071152 y= 1.147610 f'x = 0.0382491 f'y = 0.0485719
iter = 266 x = 1.071152 y= 1.147610 f'x = 0.0382491 f'y = 0.0485719
iter = 267 x = 1.068268 y= 1.141456 f'x = 0.0255961 f'y = 0.0519249
iter = 268 x = 1.068268 y= 1.141456 f'x = 0.0255961 f'y = 0.0519249
iter = 269 x = 1.066825 y= 1.138377 f'x = 0.022396 f'y = 0.0521429
iter = 270 x = 1.065383 y= 1.135304 f'x = 0.0184578 f'y = 0.0527076
iter = 271 x = 1.062497 y= 1.129154 f'x = 0.0173557 f'y = 0.0506538
iter = 272 x = 1.056727 y= 1.116857 f'x = 0.0348173 f'y = 0.0372075
iter = 273 x = 1.056727 y= 1.116857 f'x = 0.0348173 f'y = 0.0372075
iter = 274 x = 1.050948 y= 1.104657 f'x = 0.0321912 f'y = 0.0331625
iter = 275 x = 1.050948 y= 1.104657 f'x = 0.0321912 f'y = 0.0331625
iter = 276 x = 1.048055 y= 1.098595 f'x = 0.0222025 f'y = 0.0352593
iter = 277 x = 1.045162 y= 1.092536 f'x = 0.0181219 f'y = 0.034541
iter = 278 x = 1.039376 y= 1.080419 f'x = 0.0302041 f'y = 0.0233541
iter = 279 x = 1.039376 y= 1.080419 f'x = 0.0302041 f'y = 0.0233541
iter = 280 x = 1.033582 y= 1.068388 f'x = 0.0273128 f'y = 0.0192783
iter = 281 x = 1.033582 y= 1.068388 f'x = 0.0273128 f'y = 0.0192783
iter = 282 x = 1.030682 y= 1.062410 f'x = 0.0182386 f'y = 0.020921
iter = 283 x = 1.024883 y= 1.050449 f'x = 0.0234329 f'y = 0.0128467
iter = 284 x = 1.024883 y= 1.050449 f'x = 0.0234329 f'y = 0.0128467
iter = 285 x = 1.019077 y= 1.038560 f'x = 0.0212706 f'y = 0.00828404
iter = 286 x = 1.019077 y= 1.038560 f'x = 0.0212706 f'y = 0.00828404
iter = 287 x = 1.016172 y= 1.032650 f'x = 0.0141929 f'y = 0.0089309
iter = 288 x = 1.016172 y= 1.032650 f'x = 0.0141929 f'y = 0.0089309
iter = 289 x = 1.013265 y= 1.026753 f'x = 0.00749952 f'y = 0.00939077
iter = 290 x = 1.013265 y= 1.026753 f'x = 0.00749952 f'y = 0.00939077
iter = 291 x = 1.010358 y= 1.020863 f'x = 0.00451569 f'y = 0.00801695
iter = 292 x = 1.010358 y= 1.020863 f'x = 0.00451569 f'y = 0.00801695
iter = 293 x = 1.007450 y= 1.014982 f'x = 0.00396139 f'y = 0.00542868
iter = 294 x = 1.007450 y= 1.014982 f'x = 0.00396139 f'y = 0.00542868
iter = 295 x = 1.004541 y= 1.009115 f'x = 0.00404162 f'y = 0.00250851
iter = 296 x = 1.004541 y= 1.009115 f'x = 0.00404162 f'y = 0.00250851
iter = 297 x = 1.002177 y= 1.004360 f'x = 0.00391893 f'y = 0.000216948
iter = 298 x = 1.002177 y= 1.004360 f'x = 0.00391893 f'y = 0.000216948
iter = 299 x = 1.000957 y= 1.001915 f'x = 0.00220907 f'y = -0.000146954
iter = 300 x = 1.000317 y= 1.000632 f'x = 0.0012124 f'y = -0.000289486
iter = 301 x = 1.000279 y= 1.000558 f'x = 0.000658523 f'y = -5.00898e-05
iter = 302 x = 1.000279 y= 1.000558 f'x = 0.000658523 f'y = -5.00898e-05
iter = 303 x = 1.000035 y= 1.000069 f'x = 0.000108877 f'y = -1.98111e-05
iter = 304 x = 1.000016 y= 1.000033 f'x = 4.01567e-05 f'y = -3.60928e-06
iter = 305 x = 1.000016 y= 1.000033 f'x = 4.01567e-05 f'y = -3.60928e-06
iter = 306 x = 1.000001 y= 1.000002 f'x = 2.35455e-06 f'y = 7.37672e-09
iter = 307 x = 1.000000 y= 0.999999 f'x = -7.94936e-07 f'y = 5.07587e-08
We can see from the shooting method that the roots of the derivative of the R.B.-function is x=1 and y=0.999999. So the minimum of the R.B.-function is at x=1 and y=0.999999.



iter=   1, Eps= -0.85919, Hydrogen_funk(Eps,r=8)= 375.527
iter=   2, Eps= -0.78647, Hydrogen_funk(Eps,r=8)= 198.66
iter=   3, Eps= -0.704789, Hydrogen_funk(Eps,r=8)= 87.3607
iter=   4, Eps= -0.640676, Hydrogen_funk(Eps,r=8)= 40.1002
iter=   5, Eps= -0.586277, Hydrogen_funk(Eps,r=8)= 17.1604
iter=   6, Eps= -0.545584, Hydrogen_funk(Eps,r=8)= 6.84151
iter=   7, Eps= -0.518603, Hydrogen_funk(Eps,r=8)= 2.30249
iter=   8, Eps= -0.504917, Hydrogen_funk(Eps,r=8)= 0.552468
iter=   9, Eps= -0.500596, Hydrogen_funk(Eps,r=8)= 0.0672907
iter=  10, Eps= -0.499997, Hydrogen_funk(Eps,r=8)= 0.00240795
iter=  11, Eps= -0.499975, Hydrogen_funk(Eps,r=8)= 1.11164e-05



So the converged energy is -0.499975. Values of f(eps,r) is printed below with the converged energy. f(eps,r) is printed in the range 0<r<10. This data is plotted in plot.pdf along with the exact solution.


 r 	 f_num
0.01 	 0.00990048
0.02 	 0.0196039
0.03 	 0.0291133
0.04 	 0.0384315
0.05 	 0.0475614
0.06 	 0.0565058
0.07 	 0.0652675
0.08 	 0.0738492
0.09 	 0.0822537
 0.1 	 0.0904836
0.11 	 0.0985416
0.12 	  0.10643
0.13 	 0.114152
0.14 	  0.12171
0.15 	 0.129106
0.16 	 0.136343
0.17 	 0.143423
0.18 	 0.150348
0.19 	 0.157122
 0.2 	 0.163746
0.21 	 0.170222
0.22 	 0.176554
0.23 	 0.182742
0.24 	  0.18879
0.25 	   0.1947
0.26 	 0.200473
0.27 	 0.206112
0.28 	 0.211619
0.29 	 0.216996
 0.3 	 0.222245
0.31 	 0.227368
0.32 	 0.232367
0.33 	 0.237244
0.34 	 0.242001
0.35 	  0.24664
0.36 	 0.251163
0.37 	 0.255571
0.38 	 0.259867
0.39 	 0.264052
 0.4 	 0.268127
0.41 	 0.272096
0.42 	 0.275959
0.43 	 0.279718
0.44 	 0.283375
0.45 	 0.286932
0.46 	  0.29039
0.47 	  0.29375
0.48 	 0.297015
0.49 	 0.300186
 0.5 	 0.303264
0.51 	 0.306252
0.52 	  0.30915
0.53 	  0.31196
0.54 	 0.314683
0.55 	 0.317321
0.56 	 0.319876
0.57 	 0.322348
0.58 	  0.32474
0.59 	 0.327052
 0.6 	 0.329286
0.61 	 0.331443
0.62 	 0.333524
0.63 	 0.335531
0.64 	 0.337466
0.65 	 0.339328
0.66 	  0.34112
0.67 	 0.342843
0.68 	 0.344498
0.69 	 0.346086
 0.7 	 0.347608
0.71 	 0.349065
0.72 	  0.35046
0.73 	 0.351791
0.74 	 0.353062
0.75 	 0.354273
0.76 	 0.355424
0.77 	 0.356518
0.78 	 0.357554
0.79 	 0.358535
 0.8 	 0.359461
0.81 	 0.360332
0.82 	 0.361151
0.83 	 0.361918
0.84 	 0.362634
0.85 	   0.3633
0.86 	 0.363916
0.87 	 0.364485
0.88 	 0.365006
0.89 	  0.36548
 0.9 	 0.365909
0.91 	 0.366294
0.92 	 0.366634
0.93 	 0.366931
0.94 	 0.367186
0.95 	   0.3674
0.96 	 0.367573
0.97 	 0.367706
0.98 	 0.367801
0.99 	 0.367857
   1 	 0.367875
1.01 	 0.367857
1.02 	 0.367802
1.03 	 0.367712
1.04 	 0.367588
1.05 	  0.36743
1.06 	 0.367238
1.07 	 0.367014
1.08 	 0.366758
1.09 	 0.366471
 1.1 	 0.366153
1.11 	 0.365805
1.12 	 0.365428
1.13 	 0.365022
1.14 	 0.364588
1.15 	 0.364126
1.16 	 0.363638
1.17 	 0.363123
1.18 	 0.362582
1.19 	 0.362017
 1.2 	 0.361426
1.21 	 0.360812
1.22 	 0.360174
1.23 	 0.359513
1.24 	 0.358829
1.25 	 0.358124
1.26 	 0.357397
1.27 	 0.356648
1.28 	  0.35588
1.29 	 0.355091
 1.3 	 0.354283
1.31 	 0.353456
1.32 	  0.35261
1.33 	 0.351746
1.34 	 0.350865
1.35 	 0.349966
1.36 	  0.34905
1.37 	 0.348117
1.38 	 0.347169
1.39 	 0.346205
 1.4 	 0.345226
1.41 	 0.344232
1.42 	 0.343224
1.43 	 0.342202
1.44 	 0.341166
1.45 	 0.340116
1.46 	 0.339054
1.47 	  0.33798
1.48 	 0.336893
1.49 	 0.335794
 1.5 	 0.334684
1.51 	 0.333563
1.52 	  0.33243
1.53 	 0.331288
1.54 	 0.330135
1.55 	 0.328972
1.56 	   0.3278
1.57 	 0.326618
1.58 	 0.325428
1.59 	 0.324229
 1.6 	 0.323021
1.61 	 0.321806
1.62 	 0.320582
1.63 	 0.319352
1.64 	 0.318113
1.65 	 0.316868
1.66 	 0.315617
1.67 	 0.314358
1.68 	 0.313094
1.69 	 0.311823
 1.7 	 0.310547
1.71 	 0.309265
1.72 	 0.307978
1.73 	 0.306686
1.74 	  0.30539
1.75 	 0.304088
1.76 	 0.302783
1.77 	 0.301473
1.78 	 0.300159
1.79 	 0.298842
 1.8 	 0.297521
1.81 	 0.296197
1.82 	 0.294869
1.83 	 0.293539
1.84 	 0.292206
1.85 	 0.290871
1.86 	 0.289533
1.87 	 0.288193
1.88 	 0.286851
1.89 	 0.285507
 1.9 	 0.284161
1.91 	 0.282814
1.92 	 0.281466
1.93 	 0.280116
1.94 	 0.278766
1.95 	 0.277414
1.96 	 0.276062
1.97 	 0.274709
1.98 	 0.273356
1.99 	 0.272003
   2 	 0.270649
2.01 	 0.269296
2.02 	 0.267942
2.03 	 0.266589
2.04 	 0.265236
2.05 	 0.263884
2.06 	 0.262532
2.07 	 0.261181
2.08 	 0.259831
2.09 	 0.258483
 2.1 	 0.257135
2.11 	 0.255788
2.12 	 0.254443
2.13 	 0.253099
2.14 	 0.251757
2.15 	 0.250416
2.16 	 0.249077
2.17 	  0.24774
2.18 	 0.246405
2.19 	 0.245072
 2.2 	 0.243741
2.21 	 0.242412
2.22 	 0.241085
2.23 	 0.239761
2.24 	  0.23844
2.25 	 0.237121
2.26 	 0.235804
2.27 	  0.23449
2.28 	 0.233179
2.29 	 0.231871
 2.3 	 0.230566
2.31 	 0.229264
2.32 	 0.227965
2.33 	 0.226669
2.34 	 0.225376
2.35 	 0.224087
2.36 	 0.222801
2.37 	 0.221518
2.38 	 0.220239
2.39 	 0.218963
 2.4 	 0.217691
2.41 	 0.216423
2.42 	 0.215158
2.43 	 0.213897
2.44 	 0.212639
2.45 	 0.211386
2.46 	 0.210136
2.47 	 0.208891
2.48 	 0.207649
2.49 	 0.206411
 2.5 	 0.205177
2.51 	 0.203948
2.52 	 0.202723
2.53 	 0.201501
2.54 	 0.200284
2.55 	 0.199072
2.56 	 0.197863
2.57 	 0.196659
2.58 	 0.195459
2.59 	 0.194264
 2.6 	 0.193073
2.61 	 0.191887
2.62 	 0.190705
2.63 	 0.189527
2.64 	 0.188354
2.65 	 0.187186
2.66 	 0.186022
2.67 	 0.184863
2.68 	 0.183708
2.69 	 0.182558
 2.7 	 0.181413
2.71 	 0.180273
2.72 	 0.179137
2.73 	 0.178006
2.74 	  0.17688
2.75 	 0.175758
2.76 	 0.174641
2.77 	  0.17353
2.78 	 0.172423
2.79 	  0.17132
 2.8 	 0.170223
2.81 	  0.16913
2.82 	 0.168043
2.83 	  0.16696
2.84 	 0.165882
2.85 	 0.164809
2.86 	 0.163741
2.87 	 0.162678
2.88 	  0.16162
2.89 	 0.160567
 2.9 	 0.159518
2.91 	 0.158475
2.92 	 0.157436
2.93 	 0.156403
2.94 	 0.155375
2.95 	 0.154351
2.96 	 0.153333
2.97 	 0.152319
2.98 	  0.15131
2.99 	 0.150307
   3 	 0.149308
3.01 	 0.148314
3.02 	 0.147326
3.03 	 0.146342
3.04 	 0.145363
3.05 	 0.144389
3.06 	 0.143421
3.07 	 0.142457
3.08 	 0.141498
3.09 	 0.140544
 3.1 	 0.139595
3.11 	 0.138651
3.12 	 0.137712
3.13 	 0.136778
3.14 	 0.135849
3.15 	 0.134924
3.16 	 0.134005
3.17 	 0.133091
3.18 	 0.132181
3.19 	 0.131277
 3.2 	 0.130377
3.21 	 0.129482
3.22 	 0.128592
3.23 	 0.127707
3.24 	 0.126827
3.25 	 0.125952
3.26 	 0.125081
3.27 	 0.124216
3.28 	 0.123355
3.29 	 0.122499
 3.3 	 0.121647
3.31 	 0.120801
3.32 	 0.119959
3.33 	 0.119122
3.34 	  0.11829
3.35 	 0.117463
3.36 	  0.11664
3.37 	 0.115822
3.38 	 0.115009
3.39 	 0.114201
 3.4 	 0.113397
3.41 	 0.112598
3.42 	 0.111803
3.43 	 0.111013
3.44 	 0.110228
3.45 	 0.109447
3.46 	 0.108671
3.47 	   0.1079
3.48 	 0.107133
3.49 	 0.106371
 3.5 	 0.105613
3.51 	  0.10486
3.52 	 0.104111
3.53 	 0.103367
3.54 	 0.102627
3.55 	 0.101892
3.56 	 0.101161
3.57 	 0.100434
3.58 	 0.0997124
3.59 	 0.0989948
 3.6 	 0.0982816
3.61 	 0.0975727
3.62 	 0.0968682
3.63 	 0.0961681
3.64 	 0.0954722
3.65 	 0.0947807
3.66 	 0.0940934
3.67 	 0.0934104
3.68 	 0.0927317
3.69 	 0.0920571
 3.7 	 0.0913868
3.71 	 0.0907207
3.72 	 0.0900588
3.73 	 0.089401
3.74 	 0.0887474
3.75 	 0.0880979
3.76 	 0.0874526
3.77 	 0.0868113
3.78 	 0.0861741
3.79 	 0.0855409
 3.8 	 0.0849118
3.81 	 0.0842867
3.82 	 0.0836656
3.83 	 0.0830485
3.84 	 0.0824353
3.85 	 0.0818261
3.86 	 0.0812209
3.87 	 0.0806195
3.88 	 0.0800221
3.89 	 0.0794285
 3.9 	 0.0788387
3.91 	 0.0782528
3.92 	 0.0776707
3.93 	 0.0770925
3.94 	 0.076518
3.95 	 0.0759473
3.96 	 0.0753803
3.97 	 0.0748171
3.98 	 0.0742577
3.99 	 0.0737019
   4 	 0.0731497
4.01 	 0.0726013
4.02 	 0.0720564
4.03 	 0.0715152
4.04 	 0.0709776
4.05 	 0.0704436
4.06 	 0.0699132
4.07 	 0.0693863
4.08 	 0.0688629
4.09 	 0.068343
 4.1 	 0.0678266
4.11 	 0.0673137
4.12 	 0.0668043
4.13 	 0.0662983
4.14 	 0.0657957
4.15 	 0.0652965
4.16 	 0.0648007
4.17 	 0.0643083
4.18 	 0.0638192
4.19 	 0.0633334
 4.2 	 0.0628509
4.21 	 0.0623718
4.22 	 0.0618959
4.23 	 0.0614232
4.24 	 0.0609538
4.25 	 0.0604877
4.26 	 0.0600247
4.27 	 0.0595649
4.28 	 0.0591082
4.29 	 0.0586548
 4.3 	 0.0582044
4.31 	 0.0577572
4.32 	 0.057313
4.33 	 0.056872
4.34 	 0.056434
4.35 	 0.055999
4.36 	 0.055567
4.37 	 0.0551381
4.38 	 0.0547122
4.39 	 0.0542892
 4.4 	 0.0538692
4.41 	 0.0534521
4.42 	 0.0530379
4.43 	 0.0526266
4.44 	 0.0522182
4.45 	 0.0518127
4.46 	 0.0514101
4.47 	 0.0510102
4.48 	 0.0506132
4.49 	 0.050219
 4.5 	 0.0498276
4.51 	 0.0494389
4.52 	 0.049053
4.53 	 0.0486698
4.54 	 0.0482894
4.55 	 0.0479117
4.56 	 0.0475366
4.57 	 0.0471643
4.58 	 0.0467945
4.59 	 0.0464275
 4.6 	 0.046063
4.61 	 0.0457011
4.62 	 0.0453419
4.63 	 0.0449852
4.64 	 0.044631
4.65 	 0.0442794
4.66 	 0.0439303
4.67 	 0.0435838
4.68 	 0.0432397
4.69 	 0.0428981
 4.7 	 0.0425589
4.71 	 0.0422222
4.72 	 0.0418879
4.73 	 0.0415561
4.74 	 0.0412266
4.75 	 0.0408995
4.76 	 0.0405748
4.77 	 0.0402525
4.78 	 0.0399324
4.79 	 0.0396147
 4.8 	 0.0392993
4.81 	 0.0389862
4.82 	 0.0386754
4.83 	 0.0383669
4.84 	 0.0380605
4.85 	 0.0377565
4.86 	 0.0374546
4.87 	 0.0371549
4.88 	 0.0368575
4.89 	 0.0365622
 4.9 	 0.036269
4.91 	 0.035978
4.92 	 0.0356892
4.93 	 0.0354024
4.94 	 0.0351178
4.95 	 0.0348353
4.96 	 0.0345548
4.97 	 0.0342764
4.98 	    0.034
4.99 	 0.0337257
   5 	 0.0334533
5.01 	 0.033183
5.02 	 0.0329147
5.03 	 0.0326484
5.04 	 0.032384
5.05 	 0.0321216
5.06 	 0.0318611
5.07 	 0.0316025
5.08 	 0.0313459
5.09 	 0.0310911
 5.1 	 0.0308383
5.11 	 0.0305873
5.12 	 0.0303382
5.13 	 0.030091
5.14 	 0.0298455
5.15 	 0.029602
5.16 	 0.0293602
5.17 	 0.0291202
5.18 	 0.028882
5.19 	 0.0286456
 5.2 	 0.0284109
5.21 	 0.028178
5.22 	 0.0279468
5.23 	 0.0277174
5.24 	 0.0274896
5.25 	 0.0272636
5.26 	 0.0270392
5.27 	 0.0268166
5.28 	 0.0265956
5.29 	 0.0263762
 5.3 	 0.0261585
5.31 	 0.0259424
5.32 	 0.0257279
5.33 	 0.025515
5.34 	 0.0253038
5.35 	 0.0250941
5.36 	 0.0248859
5.37 	 0.0246794
5.38 	 0.0244744
5.39 	 0.0242709
 5.4 	 0.0240689
5.41 	 0.0238685
5.42 	 0.0236696
5.43 	 0.0234721
5.44 	 0.0232762
5.45 	 0.0230817
5.46 	 0.0228886
5.47 	 0.0226971
5.48 	 0.0225069
5.49 	 0.0223182
 5.5 	 0.0221309
5.51 	 0.0219451
5.52 	 0.0217606
5.53 	 0.0215775
5.54 	 0.0213958
5.55 	 0.0212154
5.56 	 0.0210364
5.57 	 0.0208587
5.58 	 0.0206824
5.59 	 0.0205074
 5.6 	 0.0203338
5.61 	 0.0201614
5.62 	 0.0199903
5.63 	 0.0198205
5.64 	 0.019652
5.65 	 0.0194848
5.66 	 0.0193188
5.67 	 0.019154
5.68 	 0.0189905
5.69 	 0.0188283
 5.7 	 0.0186673
5.71 	 0.0185075
5.72 	 0.0183489
5.73 	 0.0181914
5.74 	 0.0180352
5.75 	 0.0178802
5.76 	 0.0177263
5.77 	 0.0175735
5.78 	 0.0174219
5.79 	 0.0172715
 5.8 	 0.0171222
5.81 	 0.016974
5.82 	 0.0168269
5.83 	 0.0166809
5.84 	 0.016536
5.85 	 0.0163922
5.86 	 0.0162495
5.87 	 0.0161079
5.88 	 0.0159673
5.89 	 0.0158278
 5.9 	 0.0156893
5.91 	 0.0155518
5.92 	 0.0154154
5.93 	  0.01528
5.94 	 0.0151456
5.95 	 0.0150123
5.96 	 0.0148799
5.97 	 0.0147485
5.98 	 0.0146181
5.99 	 0.0144886
   6 	 0.0143601
6.01 	 0.0142326
6.02 	 0.014106
6.03 	 0.0139804
6.04 	 0.0138557
6.05 	 0.0137319
6.06 	 0.0136091
6.07 	 0.0134871
6.08 	 0.0133661
6.09 	 0.013246
 6.1 	 0.0131267
6.11 	 0.0130084
6.12 	 0.0128909
6.13 	 0.0127742
6.14 	 0.0126585
6.15 	 0.0125435
6.16 	 0.0124295
6.17 	 0.0123162
6.18 	 0.0122038
6.19 	 0.0120923
 6.2 	 0.0119815
6.21 	 0.0118716
6.22 	 0.0117624
6.23 	 0.0116541
6.24 	 0.0115465
6.25 	 0.0114398
6.26 	 0.0113338
6.27 	 0.0112286
6.28 	 0.0111241
6.29 	 0.0110205
 6.3 	 0.0109175
6.31 	 0.0108153
6.32 	 0.0107139
6.33 	 0.0106132
6.34 	 0.0105132
6.35 	 0.0104139
6.36 	 0.0103154
6.37 	 0.0102175
6.38 	 0.0101204
6.39 	 0.0100239
 6.4 	 0.00992815
6.41 	 0.00983307
6.42 	 0.00973866
6.43 	 0.00964493
6.44 	 0.00955186
6.45 	 0.00945945
6.46 	 0.00936769
6.47 	 0.00927657
6.48 	 0.0091861
6.49 	 0.00909627
 6.5 	 0.00900706
6.51 	 0.00891847
6.52 	 0.00883051
6.53 	 0.00874315
6.54 	 0.00865641
6.55 	 0.00857026
6.56 	 0.00848471
6.57 	 0.00839975
6.58 	 0.00831537
6.59 	 0.00823157
 6.6 	 0.00814834
6.61 	 0.00806568
6.62 	 0.00798359
6.63 	 0.00790205
6.64 	 0.00782106
6.65 	 0.00774062
6.66 	 0.00766072
6.67 	 0.00758135
6.68 	 0.00750252
6.69 	 0.00742421
 6.7 	 0.00734642
6.71 	 0.00726915
6.72 	 0.00719238
6.73 	 0.00711612
6.74 	 0.00704036
6.75 	 0.0069651
6.76 	 0.00689032
6.77 	 0.00681603
6.78 	 0.00674221
6.79 	 0.00666888
 6.8 	 0.00659601
6.81 	 0.0065236
6.82 	 0.00645166
6.83 	 0.00638018
6.84 	 0.00630916
6.85 	 0.00623858
6.86 	 0.00616844
6.87 	 0.00609875
6.88 	 0.00602948
6.89 	 0.00596064
 6.9 	 0.00589222
6.91 	 0.00582423
6.92 	 0.00575664
6.93 	 0.00568947
6.94 	 0.0056227
6.95 	 0.00555633
6.96 	 0.00549036
6.97 	 0.00542478
6.98 	 0.00535958
6.99 	 0.00529477
   7 	 0.00523033
7.01 	 0.00516627
7.02 	 0.00510258
7.03 	 0.00503925
7.04 	 0.00497628
7.05 	 0.00491367
7.06 	 0.00485141
7.07 	 0.0047895
7.08 	 0.00472793
7.09 	 0.0046667
 7.1 	 0.00460581
7.11 	 0.00454525
7.12 	 0.00448501
7.13 	 0.0044251
7.14 	 0.0043655
7.15 	 0.00430622
7.16 	 0.00424725
7.17 	 0.00418858
7.18 	 0.00413022
7.19 	 0.00407215
 7.2 	 0.00401438
7.21 	 0.0039569
7.22 	 0.0038997
7.23 	 0.00384279
7.24 	 0.00378615
7.25 	 0.00372979
7.26 	 0.0036737
7.27 	 0.00361787
7.28 	 0.0035623
7.29 	 0.003507
 7.3 	 0.00345194
7.31 	 0.00339714
7.32 	 0.00334259
7.33 	 0.00328827
7.34 	 0.0032342
7.35 	 0.00318036
7.36 	 0.00312675
7.37 	 0.00307337
7.38 	 0.00302021
7.39 	 0.00296727
 7.4 	 0.00291454
7.41 	 0.00286203
7.42 	 0.00280973
7.43 	 0.00275765
7.44 	 0.00270576
7.45 	 0.00265407
7.46 	 0.00260258
7.47 	 0.00255127
7.48 	 0.00250016
7.49 	 0.00244922
 7.5 	 0.00239847
7.51 	 0.00234789
7.52 	 0.00229748
7.53 	 0.00224725
7.54 	 0.00219717
7.55 	 0.00214726
7.56 	 0.00209751
7.57 	 0.00204791
7.58 	 0.00199846
7.59 	 0.00194916
 7.6 	   0.0019
7.61 	 0.00185099
7.62 	 0.0018021
7.63 	 0.00175336
7.64 	 0.00170474
7.65 	 0.00165624
7.66 	 0.00160787
7.67 	 0.00155962
7.68 	 0.00151148
7.69 	 0.00146346
 7.7 	 0.00141554
7.71 	 0.00136773
7.72 	 0.00132002
7.73 	 0.00127241
7.74 	 0.00122489
7.75 	 0.00117746
7.76 	 0.00113012
7.77 	 0.00108286
7.78 	 0.00103569
7.79 	 0.000988587
 7.8 	 0.000941561
7.81 	 0.000894605
7.82 	 0.000847715
7.83 	 0.000800889
7.84 	 0.000754121
7.85 	 0.00070741
7.86 	 0.000660752
7.87 	 0.000614143
7.88 	 0.000567579
7.89 	 0.000521058
 7.9 	 0.000474575
7.91 	 0.000428128
7.92 	 0.000381712
7.93 	 0.000335325
7.94 	 0.000288963
7.95 	 0.000242622
7.96 	 0.000196299
7.97 	 0.00014999
7.98 	 0.000103693
7.99 	 5.74025e-05
   8 	 1.11164e-05
8.01 	 -3.51691e-05
8.02 	 -8.14576e-05
8.03 	 -0.000127753
8.04 	 -0.000174057
8.05 	 -0.000220372
8.06 	 -0.0002667
8.07 	 -0.000313048
8.08 	 -0.00035942
8.09 	 -0.000405819
 8.1 	 -0.000452249
8.11 	 -0.000498712
8.12 	 -0.000545214
8.13 	 -0.000591756
8.14 	 -0.000638343
8.15 	 -0.000684978
8.16 	 -0.000731664
8.17 	 -0.000778406
8.18 	 -0.000825207
8.19 	 -0.00087207
 8.2 	 -0.000918999
8.21 	 -0.000965997
8.22 	 -0.00101307
8.23 	 -0.00106022
8.24 	 -0.00110745
8.25 	 -0.00115476
8.26 	 -0.00120216
8.27 	 -0.00124965
8.28 	 -0.00129723
8.29 	 -0.00134492
 8.3 	 -0.0013927
8.31 	 -0.0014406
8.32 	 -0.0014886
8.33 	 -0.00153671
8.34 	 -0.00158494
8.35 	 -0.00163329
8.36 	 -0.00168177
8.37 	 -0.00173037
8.38 	 -0.00177911
8.39 	 -0.00182798
 8.4 	 -0.00187699
8.41 	 -0.00192614
8.42 	 -0.00197544
8.43 	 -0.00202489
8.44 	 -0.0020745
8.45 	 -0.00212426
8.46 	 -0.00217418
8.47 	 -0.00222427
8.48 	 -0.00227454
8.49 	 -0.00232497
 8.5 	 -0.00237558
8.51 	 -0.00242638
8.52 	 -0.00247736
8.53 	 -0.00252853
8.54 	 -0.00257989
8.55 	 -0.00263145
8.56 	 -0.00268321
8.57 	 -0.00273518
8.58 	 -0.00278735
8.59 	 -0.00283974
 8.6 	 -0.00289235
8.61 	 -0.00294518
8.62 	 -0.00299824
8.63 	 -0.00305153
8.64 	 -0.00310505
8.65 	 -0.00315881
8.66 	 -0.00321281
8.67 	 -0.00326706
8.68 	 -0.00332156
8.69 	 -0.00337631
 8.7 	 -0.00343133
8.71 	 -0.00348661
8.72 	 -0.00354216
8.73 	 -0.00359798
8.74 	 -0.00365408
8.75 	 -0.00371046
8.76 	 -0.00376712
8.77 	 -0.00382408
8.78 	 -0.00388133
8.79 	 -0.00393888
 8.8 	 -0.00399674
8.81 	 -0.00405491
8.82 	 -0.00411338
8.83 	 -0.00417218
8.84 	 -0.0042313
8.85 	 -0.00429075
8.86 	 -0.00435053
8.87 	 -0.00441064
8.88 	 -0.0044711
8.89 	 -0.0045319
 8.9 	 -0.00459306
8.91 	 -0.00465457
8.92 	 -0.00471644
8.93 	 -0.00477868
8.94 	 -0.00484129
8.95 	 -0.00490427
8.96 	 -0.00496764
8.97 	 -0.00503139
8.98 	 -0.00509553
8.99 	 -0.00516007
   9 	 -0.00522501
9.01 	 -0.00529035
9.02 	 -0.00535611
9.03 	 -0.00542228
9.04 	 -0.00548888
9.05 	 -0.0055559
9.06 	 -0.00562336
9.07 	 -0.00569125
9.08 	 -0.00575959
9.09 	 -0.00582838
 9.1 	 -0.00589762
9.11 	 -0.00596732
9.12 	 -0.00603748
9.13 	 -0.00610812
9.14 	 -0.00617924
9.15 	 -0.00625083
9.16 	 -0.00632292
9.17 	 -0.0063955
9.18 	 -0.00646858
9.19 	 -0.00654216
 9.2 	 -0.00661626
9.21 	 -0.00669087
9.22 	 -0.00676601
9.23 	 -0.00684168
9.24 	 -0.00691788
9.25 	 -0.00699462
9.26 	 -0.00707191
9.27 	 -0.00714976
9.28 	 -0.00722816
9.29 	 -0.00730714
 9.3 	 -0.00738668
9.31 	 -0.00746681
9.32 	 -0.00754751
9.33 	 -0.00762882
9.34 	 -0.00771072
9.35 	 -0.00779322
9.36 	 -0.00787634
9.37 	 -0.00796007
9.38 	 -0.00804443
9.39 	 -0.00812942
 9.4 	 -0.00821506
9.41 	 -0.00830136
9.42 	 -0.0083883
9.43 	 -0.0084759
9.44 	 -0.00856418
9.45 	 -0.00865313
9.46 	 -0.00874275
9.47 	 -0.00883307
9.48 	 -0.00892409
9.49 	 -0.00901581
 9.5 	 -0.00910824
9.51 	 -0.00920139
9.52 	 -0.00929527
9.53 	 -0.00938988
9.54 	 -0.00948523
9.55 	 -0.00958134
9.56 	 -0.0096782
9.57 	 -0.00977582
9.58 	 -0.00987422
9.59 	 -0.0099734
 9.6 	 -0.0100734
9.61 	 -0.0101741
9.62 	 -0.0102757
9.63 	 -0.0103781
9.64 	 -0.0104813
9.65 	 -0.0105853
9.66 	 -0.0106902
9.67 	 -0.0107959
9.68 	 -0.0109025
9.69 	 -0.01101
 9.7 	 -0.0111183
9.71 	 -0.0112275
9.72 	 -0.0113376
9.73 	 -0.0114486
9.74 	 -0.0115605
9.75 	 -0.0116733
9.76 	 -0.0117871
9.77 	 -0.0119018
9.78 	 -0.0120174
9.79 	 -0.012134
 9.8 	 -0.0122515
9.81 	 -0.0123701
9.82 	 -0.0124896
9.83 	 -0.0126101
9.84 	 -0.0127316
9.85 	 -0.0128541
9.86 	 -0.0129777
9.87 	 -0.0131022
9.88 	 -0.0132279
9.89 	 -0.0133546
 9.9 	 -0.0134823
9.91 	 -0.0136111
9.92 	 -0.013741
9.93 	 -0.013872
9.94 	 -0.0140041
9.95 	 -0.0141374
9.96 	 -0.0142717
9.97 	 -0.0144072
9.98 	 -0.0145439
9.99 	 -0.0146817
  10 	 -0.0148206
